"Peso","Classe"
19,"FUOCO"
14,"FUOCO"
4,"FUOCO"
15,"FUOCO"
7,"FUOCO"
4,"FUOCO"
18,"FUOCO"
9,"FUOCO"
7,"FUOCO"
5,"FUOCO"
18,"FUOCO"
19,"FUOCO"
3,"COMUNE"
16,"COMUNE"
19,"COMUNE"
9,"COMUNE"
57,"COMUNE"
27,"FINE"
5,"FINE"
2,"FINE"
12,"FINE"
37,"ANFORA"
95,"ANFORA"
26,"ANFORA"
21,"ANFORA"
55,"ANFORA"
38,"ANFORA"
19,"ANFORA"
51,"ANFORA"
15,"ANFORA"
9,"ANFORA"
2,"ANFORA"
8,"ANFORA"
16,"ANFORA"
64,"ANFORA"
62,"ANFORA"
64,"ANFORA"
80,"ANFORA"
39,"ANFORA"
14,"ANFORA"
17,"ANFORA"
27,"ANFORA"
13,"ANFORA"
171,"ANFORA"
21,"ANFORA"
74,"ANFORA"
16,"ANFORA"
31,"ANFORA"
28,"ANFORA"
11,"ANFORA"
8,"ANFORA"
32,"ANFORA"
184,"ANFORA"
12,"ANFORA"
51,"ANFORA"
27,"ANFORA"
42,"ANFORA"
37,"ANFORA"
14,"ANFORA"
28,"ANFORA"
19,"ANFORA"
23,"ANFORA"
21,"ANFORA"
21,"ANFORA"
14,"ANFORA"
125,"ANFORA"
58,"ANFORA"
25,"COMUNE"
19,"ANFORA"
11,"ANFORA"
50,"ANFORA"
5,"ANFORA"
6,"ANFORA"
29,"ANFORA"
6,"ANFORA"
14,"ANFORA"
18,"ANFORA"
39,"ANFORA"
81,"ANFORA"
21,"ANFORA"
12,"ANFORA"
33,"ANFORA"
36,"ANFORA GLOBULARE"
37,"ANFORA GLOBULARE"
31,"ANFORA GLOBULARE"
18,"ANFORA GLOBULARE"
131,"ANFORA GLOBULARE"
38,"ANFORA GLOBULARE"
101,"ANFORA GLOBULARE"
21,"ANFORA GLOBULARE"
51,"ANFORA GLOBULARE"
96,"ANFORA GLOBULARE"
59,"ANFORA GLOBULARE"
18,"ANFORA GLOBULARE"
21,"ANFORA GLOBULARE"
28,"ANFORA GLOBULARE"
35,"ANFORA GLOBULARE"
103,"ANFORA GLOBULARE"
26,"ANFORA GLOBULARE"
59,"ANFORA GLOBULARE"
21,"ANFORA GLOBULARE"
210,"ANFORA GLOBULARE"
63,"ANFORA GLOBULARE"
28,"ANFORA GLOBULARE"
330,"ANFORA GLOBULARE"
241,"ANFORA GLOBULARE"
30,"ANFORA GLOBULARE"
44,"ANFORA GLOBULARE"
25,"ANFORA GLOBULARE"
233,"ANFORA GLOBULARE"
46,"ANFORA GLOBULARE"
44,"ANFORA GLOBULARE"
150,"ANFORA GLOBULARE"
28,"ANFORA GLOBULARE"
28,"ANFORA GLOBULARE"
13,"ANFORA GLOBULARE"
17,"ANFORA GLOBULARE"
32,"ANFORA GLOBULARE"
83,"ANFORA GLOBULARE"
181,"ANFORA GLOBULARE"
155,"ANFORA GLOBULARE"
48,"ANFORA GLOBULARE"
17,"ANFORA GLOBULARE"
18,"ANFORA GLOBULARE"
29,"ANFORA GLOBULARE"
30,"ANFORA GLOBULARE"
20,"ANFORA GLOBULARE"
9,"ANFORA GLOBULARE"
4,"COMUNE"
7,"COMUNE"
18,"COMUNE"
7,"COMUNE"
11,"COMUNE"
23,"COMUNE"
7,"COMUNE"
7,"COMUNE"
10,"COMUNE"
4,"COMUNE"
4,"COMUNE"
18,"ANFORA"
10,"ANFORA"
7,"COMUNE"
33,"COMUNE"
12,"COMUNE"
10,"COMUNE"
8,"ANFORA"
7,"ANFORA"
8,"COMUNE"
9,"COMUNE"
23,"COMUNE"
12,"COMUNE"
12,"ANFORA"
18,"COMUNE"
2,"COMUNE"
10,"COMUNE"
8,"COMUNE"
5,"COMUNE"
15,"ANFORA"
4,"ANFORA"
5,"COMUNE"
11,"COMUNE"
9,"COMUNE"
33,"COMUNE"
14,"COMUNE"
5,"COMUNE"
110,"COMUNE"
8,"COMUNE"
6,"COMUNE"
7,"ANFORA"
370,"PITHOS"
360,"PITHOS"
217,"PITHOS"
451,"PITHOS"
299,"PITHOS"
98,"PITHOS"
49,"PITHOS"
147,"PITHOS"
117,"PITHOS"
118,"PITHOS"
46,"PITHOS"
194,"PITHOS"
104,"PITHOS"
384,"PITHOS"
175,"PITHOS"
22,"PITHOS"
10,"ANFORA"
